<svg width="32" height="32" viewBox="0 0 32 32" fill="none" xmlns="http://www.w3.org/2000/svg">
<rect width="32" height="32" fill="#EEEEEE" fill-opacity="0.933333"/>
<path d="M7.90913 23.8527C4.85502 22.3038 2.63117 19.9427 1.61475 17.2235C0.600254 14.5093 0.846269 11.5957 2.31667 9.0071C3.78998 6.41334 6.40253 4.30749 9.69801 3.09933C12.9931 1.89129 16.7303 1.67004 20.2178 2.47936C23.7058 3.2888 26.6887 5.0692 28.6329 7.47121C30.5741 9.86942 31.3529 12.7274 30.8521 15.5248C30.3508 18.3254 28.5939 20.9125 25.8675 22.7972C23.14 24.6827 19.6366 25.7288 16 25.7288L8.25805 30" stroke="#241F20" stroke-width="2"/>
<rect x="8" y="13" width="2" height="2" fill="#241F20"/>
<rect x="22" y="13" width="2" height="2" fill="#241F20"/>
<rect x="15" y="13" width="2" height="2" fill="#241F20"/>
</svg>
