<svg width="32" height="32" viewBox="0 0 32 32" fill="none" xmlns="http://www.w3.org/2000/svg">
<rect width="32" height="32" fill="#EEEEEE" fill-opacity="0.933333"/>
<path d="M16.5 26.4237C19.7183 26.4237 22.8284 25.3412 25.2716 23.3746C27.7145 21.4084 29.3298 18.6884 29.8329 15.7055C30.3359 12.7228 29.6949 9.66752 28.022 7.08766C26.3488 4.50727 23.7516 2.56998 20.6936 1.6289C17.6353 0.687747 14.3209 0.806157 11.3474 1.96237C8.37426 3.11846 5.94059 5.23469 4.4795 7.92604C3.0187 10.6169 2.62418 13.7088 3.36494 16.6474C4.10579 19.5864 5.93502 22.1844 8.52943 23.9715L8.52943 31L11.827 27.9492" stroke="#241F20" stroke-width="2" stroke-linejoin="round"/>
<path d="M15.2122 12.4586L15.3535 10.5904L13.1882 8.4251C12.9534 8.19032 12.5728 8.19032 12.338 8.4251V8.4251C11.0468 9.71634 11.0468 11.8098 12.338 13.1011L16.8723 17.6354C18.1635 18.9266 20.257 18.9266 21.5483 17.6354V17.6354C21.7831 17.4006 21.7831 17.02 21.5483 16.7852L19.383 14.6199L17.5148 14.7612" stroke="#241F20" stroke-width="2"/>
</svg>
