<svg width="32" height="32" viewBox="0 0 32 32" fill="none" xmlns="http://www.w3.org/2000/svg">
<g clip-path="url(#clip0_25_170)">
<rect width="32" height="32" fill="#EEEEEE" fill-opacity="0.933333"/>
<path d="M16 23C19.866 23 23 19.866 23 16C23 12.134 19.866 9 16 9C12.134 9 9 12.134 9 16C9 19.866 12.134 23 16 23Z" stroke="#241F20" stroke-width="2" stroke-miterlimit="10"/>
<path d="M24.5 9C25.3284 9 26 8.32843 26 7.5C26 6.67157 25.3284 6 24.5 6C23.6716 6 23 6.67157 23 7.5C23 8.32843 23.6716 9 24.5 9Z" fill="#241F20"/>
<path d="M10 31H7C3.68629 31 1 28.3137 1 25V7C1 3.68629 3.68629 1 7 1H25C28.3137 1 31 3.68629 31 7V25C31 28.3137 28.3137 31 25 31H16" stroke="#241F20" stroke-width="2"/>
</g>
<defs>
<clipPath id="clip0_25_170">
<rect width="32" height="32" fill="white"/>
</clipPath>
</defs>
</svg>
