<svg width="32" height="32" viewBox="0 0 32 32" fill="none" xmlns="http://www.w3.org/2000/svg">
<rect width="32" height="32" fill="#EEEEEE" fill-opacity="0.933333"/>
<path d="M7 9.5L16 16.6054L29.4906 6.15C29.6298 6.04043 29.7964 5.97306 29.9713 5.95558C30.1462 5.9381 30.3223 5.97121 30.4797 6.05114C30.637 6.13107 30.7693 6.2546 30.8613 6.40763C30.9532 6.56067 31.0013 6.73705 31 6.91667V26.0833C31 26.5917 30.8024 27.0792 30.4508 27.4386C30.0992 27.7981 29.6223 28 29.125 28H2.875C2.37772 28 1.9008 27.7981 1.54917 27.4386C1.19754 27.0792 1 26.5917 1 26.0833V6.91667C1 6.40834 1.19754 5.92082 1.54917 5.56138C1.9008 5.20193 2.37772 5 2.875 5H22.5" stroke="#241F20" stroke-width="2" stroke-miterlimit="10"/>
</svg>
