<svg width="32" height="32" viewBox="0 0 32 32" fill="none" xmlns="http://www.w3.org/2000/svg">
<rect width="32" height="32" fill="#EEEEEE" fill-opacity="0.933333"/>
<path d="M25.8438 9.45455H1V6C1 4.89543 1.89543 4 3 4H29C30.1046 4 31 4.89543 31 6V26C31 27.1046 30.1046 28 29 28H3C1.89543 28 1 27.1046 1 26V13.8182" stroke="#241F20" stroke-width="2"/>
</svg>
