<svg width="32" height="32" viewBox="0 0 32 32" fill="none" xmlns="http://www.w3.org/2000/svg">
<g clip-path="url(#clip0_25_146)">
<rect width="32" height="32" fill="#EEEEEE" fill-opacity="0.933333"/>
<path d="M14.151 23.6199C11.475 24.0416 8.73622 23.4949 6.42728 22.0779C4.11833 20.6609 2.39067 18.4666 1.55497 15.8896C0.719266 13.3127 0.830348 10.5221 1.86824 8.01972C2.90613 5.51734 4.80274 3.46734 7.21701 2.23835C9.63128 1.00936 12.4048 0.682011 15.0389 1.31517C17.6729 1.94834 19.9947 3.50047 21.5866 5.69246C23.1786 7.88445 23.9363 10.5725 23.7235 13.2732C23.5107 15.9739 22.3413 18.5101 20.4257 20.4257L31 31" stroke="#241F20" stroke-width="2"/>
</g>
<defs>
<clipPath id="clip0_25_146">
<rect width="32" height="32" fill="white"/>
</clipPath>
</defs>
</svg>
