<svg width="32" height="32" viewBox="0 0 32 32" fill="none" xmlns="http://www.w3.org/2000/svg">
<rect width="32" height="32" fill="#EEEEEE" fill-opacity="0.933333"/>
<path d="M4.85714 10.375L3 31H29L27.1429 10.375H21.5714V6.625C21.5714 5.13316 20.9844 3.70242 19.9396 2.64752C18.8947 1.59263 17.4776 1 16 1C14.5224 1 13.1053 1.59263 12.0604 2.64752C11.0156 3.70242 10.4286 5.13316 10.4286 6.625V10.375H16" stroke="#241F20" stroke-width="2" stroke-miterlimit="10"/>
</svg>
